{
  "hosting": {
    "amplifyhosting": {
      "service": "amplifyhosting",
      "providerPlugin": "awscloudformation",
      "type": "manual"
    }
  },
  "storage": {
    "cmakDynamo": {
      "service": "DynamoDB",
      "providerPlugin": "awscloudformation"
    },
    "cmakBucket": {
      "service": "S3",
      "providerPlugin": "awscloudformation"
    }
  },
  "auth": {
    "cmakappf72350e2": {
      "service": "Cognito",
      "providerPlugin": "awscloudformation",
      "dependsOn": [],
      "customAuth": false
    }
  },
  "function": {
    "cmakGetProfile": {
      "build": true,
      "providerPlugin": "awscloudformation",
      "service": "Lambda",
      "dependsOn": [
        {
          "category": "storage",
          "resourceName": "cmakDynamo",
          "attributes": [
            "Name",
            "Arn"
          ]
        },
        {
          "category": "storage",
          "resourceName": "cmakBucket",
          "attributes": [
            "BucketName"
          ]
        },
        {
          "category": "auth",
          "resourceName": "cmakappf72350e2",
          "attributes": [
            "UserPoolId"
          ]
        }
      ]
    },
    "cmakAdmins": {
      "build": true,
      "providerPlugin": "awscloudformation",
      "service": "Lambda",
      "dependsOn": [
        {
          "category": "storage",
          "resourceName": "cmakDynamo",
          "attributes": [
            "Name",
            "Arn"
          ]
        },
        {
          "category": "storage",
          "resourceName": "cmakBucket",
          "attributes": [
            "BucketName"
          ]
        },
        {
          "category": "auth",
          "resourceName": "cmakappf72350e2",
          "attributes": [
            "UserPoolId"
          ]
        }
      ]
    },
    "cmakappLambdaLayer": {
      "providerPlugin": "awscloudformation",
      "service": "LambdaLayer",
      "build": true
    },
    "cmakEvals": {
      "build": true,
      "providerPlugin": "awscloudformation",
      "service": "Lambda",
      "dependsOn": [
        {
          "category": "storage",
          "resourceName": "cmakDynamo",
          "attributes": [
            "Name",
            "Arn"
          ]
        },
        {
          "category": "storage",
          "resourceName": "cmakBucket",
          "attributes": [
            "BucketName"
          ]
        },
        {
          "category": "auth",
          "resourceName": "cmakappf72350e2",
          "attributes": [
            "UserPoolId"
          ]
        }
      ]
    },
    "cmakRatings": {
      "build": true,
      "providerPlugin": "awscloudformation",
      "service": "Lambda",
      "dependsOn": [
        {
          "category": "storage",
          "resourceName": "cmakDynamo",
          "attributes": [
            "Name",
            "Arn"
          ]
        },
        {
          "category": "storage",
          "resourceName": "cmakBucket",
          "attributes": [
            "BucketName"
          ]
        },
        {
          "category": "auth",
          "resourceName": "cmakappf72350e2",
          "attributes": [
            "UserPoolId"
          ]
        }
      ]
    }
  },
  "api": {
    "apicmakprofile": {
      "service": "API Gateway",
      "providerPlugin": "awscloudformation",
      "dependsOn": [
        {
          "category": "function",
          "resourceName": "cmakEvals",
          "attributes": [
            "Name",
            "Arn"
          ]
        },
        {
          "category": "function",
          "resourceName": "cmakGetProfile",
          "attributes": [
            "Name",
            "Arn"
          ]
        },
        {
          "category": "function",
          "resourceName": "cmakAdmins",
          "attributes": [
            "Name",
            "Arn"
          ]
        },
        {
          "category": "function",
          "resourceName": "cmakRatings",
          "attributes": [
            "Name",
            "Arn"
          ]
        }
      ]
    }
  }
}